3227 3311 2937 3618 3641 3526 3598 3630 2080 4483 2783 3001 2386 2485 4480 4676 
4389 3160 3730 4320 3702 3870 4312 5270 2753 5038 2757 3422 2257 3611 3768 5337 
3260 2932 2951 3738 3086 3024 3946 4348 2062 4126 2608 3138 2328 2485 3472 4266 
3740 2739 2635 3760 3456 3681 3924 3824 2658 3932 2407 2420 1615 2482 3022 4535 
4512 3943 3174 4585 4652 4560 4994 5160 2623 5069 3508 3272 2526 3403 4495 5236 
2133 1825 1641 2567 2401 1833 2578 2880 1473 2417 1898 2112 1079 1923 2078 2765 
3437 3472 2955 3924 3686 4051 4116 4972 2483 4669 3367 3181 2339 2706 4394 4617 
4107 3612 3415 4275 3746 4081 4872 5532 2869 4948 3380 3527 2975 2662 3861 5245 
4373 3218 2776 3458 4127 4347 4429 4269 2414 5112 3161 3247 2460 3451 3829 4918 
4666 3264 3209 3967 4892 5397 4901 5326 2958 6357 3910 4080 2917 3838 4883 5630 
3411 3276 2257 4069 3653 3858 4069 4400 2067 4009 3078 2747 1744 2894 4081 4062 
4140 3238 2988 3908 4488 4355 4004 5203 2608 5476 3855 3988 2611 3442 5154 5341 
5628 4297 3676 5129 5320 5081 5778 6357 3519 6056 4356 4495 3216 3961 4826 6507 
3866 3206 3384 3825 3775 3611 3643 4581 2295 4924 2890 3483 2359 2801 4630 4947 
3736 3177 2519 3641 3153 3700 4216 4626 2687 4330 3405 3188 2333 2680 3637 4586 
4544 3533 3491 4588 4684 4093 4671 5930 3236 5540 4047 4386 2983 3065 4838 5847 
