32 32 32
9 2 29 16 18 30 16 22 27 25 9 18 23 4 1 1 29 1 13 4 4 1 2 8 9 14 23 24 0 29 22 3 
28 0 23 1 9 23 27 23 26 23 7 27 2 24 26 26 9 20 29 11 12 29 15 5 24 23 24 15 7 20 17 10 
22 7 24 2 14 0 2 22 24 10 29 24 28 30 8 5 2 21 0 19 1 25 23 27 7 18 14 27 1 3 8 1 
30 7 27 1 3 7 19 23 8 4 24 20 24 28 25 11 0 6 21 11 30 9 20 11 12 11 23 18 25 8 29 3 
26 20 16 8 19 14 15 26 7 21 12 7 23 10 23 27 24 13 23 10 14 20 4 27 27 0 2 15 23 15 12 3 
14 1 17 29 14 20 29 15 28 23 28 0 19 23 28 8 12 5 3 0 26 8 24 19 19 12 10 18 5 0 19 0 
21 0 25 1 24 0 18 26 13 20 10 23 15 29 1 15 4 8 1 12 17 4 7 10 9 9 8 20 21 10 17 26 
30 19 2 26 19 29 14 17 27 3 28 22 30 20 16 8 7 19 29 2 19 4 16 0 8 5 12 19 24 22 24 18 
10 26 5 8 8 1 19 29 10 5 1 27 16 23 30 30 17 2 16 10 25 7 24 16 18 24 12 11 18 0 17 10 
21 3 23 8 5 13 9 16 22 6 28 10 5 30 11 2 29 25 20 12 21 18 0 29 16 19 17 20 19 18 24 2 
3 22 12 26 4 20 29 4 17 30 20 6 20 20 30 10 3 8 10 10 2 20 9 25 26 26 26 27 29 29 8 18 
21 15 9 21 17 29 19 26 5 27 10 7 10 19 7 15 22 28 9 13 3 27 27 20 10 3 28 24 24 22 22 25 
30 17 4 29 27 2 26 8 16 18 10 10 30 21 1 29 27 8 15 15 9 14 12 27 20 2 27 14 12 17 18 18 
5 29 0 21 5 24 18 6 18 28 2 18 7 9 29 23 12 9 27 23 13 2 9 14 8 21 21 16 10 6 16 12 
4 4 6 16 6 6 6 10 20 10 20 1 7 6 7 8 16 11 0 20 10 13 11 10 4 3 29 20 20 29 9 9 
19 23 19 22 30 30 24 11 21 5 25 19 1 21 6 7 17 3 10 13 14 8 21 18 2 26 25 20 26 0 1 14 
6 27 12 5 10 14 19 11 12 21 30 19 3 30 12 4 24 28 1 18 9 18 9 30 8 18 28 14 2 3 11 29 
16 16 21 17 20 30 2 13 2 0 21 9 3 2 25 22 0 4 19 3 3 21 10 20 19 7 19 28 21 0 3 2 
2 2 25 9 25 12 28 28 17 19 20 15 12 5 23 17 28 10 27 7 10 10 13 10 22 29 14 16 4 16 2 24 
9 25 8 3 7 26 7 1 23 20 25 5 23 13 27 29 29 3 24 6 8 11 28 25 8 15 6 25 11 12 14 20 
4 5 3 15 5 15 18 26 5 6 3 25 16 20 4 25 6 6 4 11 19 11 2 17 21 30 19 25 2 13 25 21 
27 2 4 21 4 17 30 27 7 8 3 13 15 1 17 19 10 23 17 9 28 15 24 29 12 9 22 7 0 1 5 3 
16 11 4 26 21 17 23 14 9 9 9 5 9 16 0 3 21 2 28 13 14 15 6 20 0 13 21 12 21 1 13 12 
7 11 28 11 13 4 26 2 13 5 24 30 9 24 5 26 17 25 18 25 4 5 12 7 5 8 27 16 19 8 3 8 
19 23 23 5 18 4 24 4 11 21 28 3 9 14 19 29 27 14 9 11 2 12 1 4 5 1 29 5 26 5 25 1 
11 15 15 6 16 27 23 3 5 20 27 13 20 13 7 13 2 29 23 5 0 23 14 2 15 14 30 27 6 9 5 25 
26 4 10 23 18 26 24 26 28 27 21 6 0 0 28 4 6 20 25 8 26 28 0 1 11 5 23 30 23 3 20 17 
24 26 23 26 28 10 25 25 17 13 3 26 16 8 30 0 27 14 3 14 9 13 19 14 5 20 17 17 30 2 16 10 
0 16 10 12 10 20 7 25 24 30 1 22 26 1 19 2 22 17 13 29 26 30 23 14 3 26 14 18 18 18 13 30 
11 12 6 15 8 10 22 20 4 24 20 15 22 1 1 22 6 13 7 17 5 4 15 21 13 7 25 17 21 4 17 18 
15 11 6 26 28 16 8 5 4 3 26 12 3 3 14 19 16 0 3 2 29 18 22 7 7 7 30 29 13 11 12 28 
18 3 14 0 24 6 24 20 21 14 18 26 1 27 26 20 8 29 9 19 0 27 21 11 4 12 12 20 21 15 13 14 
15 4 15 27 21 13 14 30 16 7 5 6 11 20 4 15 27 14 2 19 6 22 7 25 28 9 1 20 7 19 17 25 
24 1 12 10 0 10 22 23 14 17 5 27 30 18 6 22 6 2 26 1 11 27 26 13 28 6 1 19 3 22 14 20 
23 19 0 9 10 9 4 24 25 19 23 25 11 19 2 4 17 20 26 29 26 5 3 17 3 11 24 30 19 24 14 18 
8 28 6 13 22 0 4 20 21 11 7 30 0 12 7 5 16 21 7 11 9 16 3 9 23 3 20 26 3 25 19 24 
12 28 12 12 5 25 23 11 7 23 27 3 2 30 30 25 11 12 3 22 24 23 6 30 17 3 3 7 14 4 26 17 
0 6 15 21 11 20 8 26 16 24 9 26 23 7 13 3 0 10 23 9 26 1 4 3 6 3 3 9 21 5 23 13 
22 21 28 27 2 13 29 4 22 14 6 27 4 12 23 29 4 21 16 21 9 18 21 1 29 4 12 12 6 23 7 15 
18 28 6 16 28 1 28 27 24 14 19 23 19 19 25 9 15 17 8 23 6 5 13 9 25 4 16 14 16 25 20 17 
6 14 1 3 19 17 13 8 22 5 27 20 17 26 19 3 3 11 7 23 19 9 18 23 4 2 25 21 29 3 2 17 
21 21 4 11 5 10 11 10 19 26 16 20 17 7 15 18 4 23 19 3 10 0 23 27 16 5 15 18 3 4 0 5 
20 8 27 23 7 16 19 24 17 12 15 14 16 20 12 20 26 6 2 16 10 26 16 16 12 20 12 11 6 13 14 18 
8 14 8 29 8 19 12 28 11 20 9 14 7 20 22 12 19 3 28 11 16 7 24 20 17 11 5 5 17 23 5 26 
4 26 29 12 26 13 15 22 21 1 8 13 21 7 2 21 1 26 27 3 1 0 18 17 19 1 1 23 19 1 26 29 
16 14 9 15 20 9 7 17 26 28 16 7 4 4 28 13 27 15 23 14 7 25 27 16 22 6 6 29 1 30 8 13 
16 14 6 30 14 5 18 26 19 7 14 8 4 30 28 4 18 3 24 5 30 11 21 13 8 9 27 11 8 19 16 11 
17 22 25 17 2 13 6 13 1 6 13 22 23 24 16 30 5 27 28 26 5 21 21 25 26 3 29 10 6 16 10 11 
15 11 2 21 8 7 6 15 6 11 11 13 0 12 25 4 26 10 27 25 19 1 22 20 10 19 12 26 28 2 21 10 
17 8 23 7 22 9 14 13 4 7 4 5 23 24 26 23 7 11 13 3 17 17 21 11 28 19 22 29 23 9 8 14 
15 4 25 19 21 19 2 22 1 16 14 22 24 22 12 24 10 7 1 13 28 11 12 23 13 9 8 11 23 21 0 24 
20 3 4 4 15 28 22 13 1 3 19 30 17 15 27 26 29 10 21 16 12 23 19 6 25 19 15 23 22 19 16 24 
19 20 12 18 16 14 5 24 30 23 12 6 5 3 4 3 9 24 11 25 12 24 30 15 30 17 26 0 5 9 12 12 
9 23 26 2 2 13 14 7 15 5 11 7 10 21 12 4 26 16 25 23 16 22 18 11 27 29 27 27 29 14 26 25 
24 0 26 28 8 0 23 29 25 6 5 19 12 12 5 0 5 17 16 13 21 22 12 26 30 19 13 18 18 21 3 18 
10 3 21 15 28 18 28 20 12 26 16 30 10 8 26 15 5 17 19 10 3 4 6 17 26 30 13 20 24 7 24 28 
14 25 16 18 2 11 11 8 5 25 27 9 30 4 14 12 4 20 19 29 25 11 22 30 2 17 24 9 30 4 2 27 
28 26 14 2 25 27 25 22 21 16 21 19 4 7 27 15 20 18 0 24 20 26 28 15 13 17 21 25 6 12 24 1 
4 1 10 29 2 24 3 4 4 22 16 30 25 4 20 13 2 18 6 8 0 25 4 1 22 29 11 23 22 22 9 4 
18 12 25 23 9 29 12 3 2 9 1 9 23 29 25 17 12 30 23 23 24 24 23 12 9 26 29 25 11 25 7 23 
13 3 8 22 21 13 3 27 28 8 20 3 7 29 3 24 30 27 16 4 7 19 16 28 26 2 18 6 26 24 4 25 
10 28 13 10 27 5 29 13 4 16 26 11 0 1 26 7 13 15 26 19 30 30 16 1 17 26 30 14 1 2 17 16 
28 26 29 18 5 16 6 17 10 11 10 19 7 0 10 27 7 25 14 12 25 17 25 0 12 25 9 26 22 12 14 23 
14 15 8 27 4 0 2 30 0 24 8 12 8 19 13 21 4 6 20 9 12 9 0 27 20 16 10 26 17 18 7 0 
