8 8 8
24 28 19 19 9 12 24 30 
15 20 16 3 21 21 22 29 
28 13 4 9 3 0 29 29 
7 7 9 21 9 27 7 4 
6 0 19 16 1 2 20 22 
3 26 13 17 7 19 6 16 
28 6 6 24 29 24 23 10 
12 26 27 10 9 27 9 18 
2 16 8 8 29 7 7 9 
16 9 14 27 9 21 3 20 
9 9 26 21 8 27 15 6 
30 11 14 21 20 9 0 9 
0 29 15 8 8 5 8 10 
10 5 28 24 12 23 6 18 
24 14 3 18 5 14 28 4 
4 9 14 19 8 4 19 5 
